^C:\DOCUMENTS\VISUAL STUDIO 2022\PROJECTS\VECTORHW\VECTORHW\VECTOR.CPP
/c /Zi /nologo /W3 /WX- /diagnostics:column /sdl /O2 /Oi /GL /D NDEBUG /D _CONSOLE /D _UNICODE /D UNICODE /Gm- /EHsc /MD /GS /Gy /fp:precise /Zc:wchar_t /Zc:forScope /Zc:inline /permissive- /Fo"X64\RELEASE\\" /Fd"X64\RELEASE\VC143.PDB" /external:W3 /Gd /TP /FC C:\DOCUMENTS\VISUAL STUDIO 2022\PROJECTS\VECTORHW\VECTORHW\VECTOR.CPP
^C:\DOCUMENTS\VISUAL STUDIO 2022\PROJECTS\VECTORHW\VECTORHW\VECTORHW.CPP
/c /Zi /nologo /W3 /WX- /diagnostics:column /sdl /O2 /Oi /GL /D NDEBUG /D _CONSOLE /D _UNICODE /D UNICODE /Gm- /EHsc /MD /GS /Gy /fp:precise /Zc:wchar_t /Zc:forScope /Zc:inline /permissive- /Fo"X64\RELEASE\\" /Fd"X64\RELEASE\VC143.PDB" /external:W3 /Gd /TP /FC C:\DOCUMENTS\VISUAL STUDIO 2022\PROJECTS\VECTORHW\VECTORHW\VECTORHW.CPP
